{
  "count": 23,
  "next": "https://online.ntnu.no/api/v1/event/events/?event_start__gte=2021-09-26&page=2",
  "previous": null,
  "results": [
      {
          "id": 1617,
          "title": "CrossFit",
          "slug": "crossfit",
          "ingress": "Var planen å begynne å trene etter fadderukene, men mangler du å starte opp igjen?",
          "ingress_short": "Har du lyst til å bli med på en god økt?",
          "description": "Bli med Online IL på en real CrossFit økt på CrossFit Trondheim! Her blir det trening med coach som passer alle som vil prøve seg! Dette blir en god økt, og er bare å glede seg til den beste følelsen når du er ferdig! \r\n\r\nBli med da vel!",
          "start_date": "2021-09-26T12:00:00+02:00",
          "end_date": "2021-09-26T13:00:00+02:00",
          "location": "Kobbes gate 10",
          "event_type": 1,
          "event_type_display": "Sosialt",
          "organizer": 36,
          "author": null,
          "images": [],
          "companies": [],
          "is_attendance_event": true,
          "max_capacity": 20,
          "number_of_seats_taken": 14
      },
      {
          "id": 1620,
          "title": "Quiz med Online",
          "slug": "quiz-med-online",
          "ingress": "Bli med på en morsom quiz med resten av Online-gjengen!",
          "ingress_short": "Bli med på torsdagsquiz med Online!!",
          "description": "Det arrangeres en quiz på tvers av hele Online. Det blir premie til vinnerne woho!",
          "start_date": "2021-09-30T18:00:00+02:00",
          "end_date": "2021-09-30T22:00:00+02:00",
          "location": "TBA",
          "event_type": 1,
          "event_type_display": "Sosialt",
          "organizer": 1,
          "author": null,
          "images": [
              {
                  "id": 963,
                  "name": "Quiz arrkom",
                  "timestamp": "2021-09-24T12:24:00.620198+02:00",
                  "description": "Quiz med arrkom",
                  "thumb": "/media/images/responsive/thumbnails/223322c4-4887-4b8d-87a1-7017e43bb265.png",
                  "original": "/media/images/responsive/223322c4-4887-4b8d-87a1-7017e43bb265.png",
                  "wide": "/media/images/responsive/wide/223322c4-4887-4b8d-87a1-7017e43bb265.png",
                  "lg": "/media/images/responsive/lg/223322c4-4887-4b8d-87a1-7017e43bb265.png",
                  "md": "/media/images/responsive/md/223322c4-4887-4b8d-87a1-7017e43bb265.png",
                  "sm": "/media/images/responsive/sm/223322c4-4887-4b8d-87a1-7017e43bb265.png",
                  "xs": "/media/images/responsive/xs/223322c4-4887-4b8d-87a1-7017e43bb265.png",
                  "tags": [
                      "quiz"
                  ],
                  "photographer": "",
                  "preset": "event",
                  "preset_display": "Arrangement"
              }
          ],
          "companies": [],
          "is_attendance_event": true,
          "max_capacity": 30,
          "number_of_seats_taken": 30
      },
      {
          "id": 1627,
          "title": "IDI arbeidskveld med Excited",
          "slug": "idi-arbeidskveld-med-excited",
          "ingress": "Vær hilset førsteklassinger!",
          "ingress_short": "IDI Arbeidsdag for 1.klasse",
          "description": "Hver uke frem til eksamensperioden vil det mellom 16-20 være IDI-arbeidskveld for 1.klasse informatikk på rom A4-156. Denne uka vil datoen være torsdag 30.09!\r\nHer kan du sosialisere med andre førsteklassinger og få hjelp til faglig arbeid som øvinger eller andre spørsmål du måtte ha! Det blir servert pizza til alle og er alltid studasser tilgjengelig! \r\nVel møtt",
          "start_date": "2021-09-30T16:00:00+02:00",
          "end_date": "2021-09-30T20:00:00+02:00",
          "location": "A4- 156",
          "event_type": 1,
          "event_type_display": "Sosialt",
          "organizer": 44,
          "author": null,
          "images": [],
          "companies": [],
          "is_attendance_event": true,
          "max_capacity": 50,
          "number_of_seats_taken": 18
      },
      {
          "id": 1575,
          "title": "AsciiDoc frokostseminar",
          "slug": "asciidoc-frokostseminar",
          "ingress": "Lei av LaTex? Bli med på frokostseminar om AsciiDoc!",
          "ingress_short": "Lei av LaTex? Bli med på frokostseminar om AsciiDoc!",
          "description": "Har du kommet i gang med masteren og laget et LaTeX-prosjekt i Overleaf? Isåfall slett det med en gang. LaTeX er for folk som går FysMat og får en tåre i trusa når de tenker på kvarker og integraler.  Aslak og August kommer hele veien fra hovedstaden for å kjempe mot LaTex sitt klamme jerngrep over informatikkstudentene. De blir å presentere et alternativ til LaTeX og hvordan de har brukt Zotero til å holde orden på siteringer.\r\n\r\n \r\nAsciiDoc er et Open Source Markdown-lignende språk som kan rendre til HTML og PDF. Aslak og August blir å gi et kurs i hvordan du bruker det, samt presentere en mal som blir tilnærmet identisk til NTNU-malen etter den er kompilert til PDF.\r\n\r\n \r\nVi anbefaler at du tar med deg en datamaskin.\r\n\r\n\r\nHvis du vil smugtitte på malen eller den ferdige masteroppgaven finner du linker under:\r\n\r\n\r\nNTNU-MAL: https://github.com/aslakhol/asciidoc-thesis-template\r\n\r\nMasteroppgave (Asciidoc): https://github.com/aslakhol/thesis\r\n\r\nMasteroppgave (nettside): https://ideal-pancake.netlify.app",
          "start_date": "2021-09-27T10:00:00+02:00",
          "end_date": "2021-09-27T12:00:00+02:00",
          "location": "R D4-132",
          "event_type": 3,
          "event_type_display": "Kurs",
          "organizer": 6,
          "author": null,
          "images": [
              {
                  "id": 951,
                  "name": "AsciiDoc",
                  "timestamp": "2021-09-16T10:51:44.297398+02:00",
                  "description": "Kurs i asciidoc",
                  "thumb": "/media/images/responsive/thumbnails/8af8e6aa-e068-475a-89c4-df8f5cae062c.png",
                  "original": "/media/images/responsive/8af8e6aa-e068-475a-89c4-df8f5cae062c.png",
                  "wide": "/media/images/responsive/wide/8af8e6aa-e068-475a-89c4-df8f5cae062c.png",
                  "lg": "/media/images/responsive/lg/8af8e6aa-e068-475a-89c4-df8f5cae062c.png",
                  "md": "/media/images/responsive/md/8af8e6aa-e068-475a-89c4-df8f5cae062c.png",
                  "sm": "/media/images/responsive/sm/8af8e6aa-e068-475a-89c4-df8f5cae062c.png",
                  "xs": "/media/images/responsive/xs/8af8e6aa-e068-475a-89c4-df8f5cae062c.png",
                  "tags": [],
                  "photographer": "",
                  "preset": "event",
                  "preset_display": "Arrangement"
              }
          ],
          "companies": [],
          "is_attendance_event": true,
          "max_capacity": 35,
          "number_of_seats_taken": 31
      },
      {
          "id": 1622,
          "title": "Self-Care Monday",
          "slug": "self-care-monday",
          "ingress": "Har du en hektisk hverdag i vente? Eller hatt for lite tid til egenpleie i det siste? Bli med trikom på en kveld fylt med indre ro og god stemning.",
          "ingress_short": "Self-Care Monday ..................",
          "description": "Vi begynner ettermiddagen med ansiktsmasker<3  Videre vil det være mulig å male sitt eget handlenett og spille brettspill. Det blir også masse god te og frukt under arrangementet, ikke minst avslappende musikk. \r\n\r\n\r\nNB! Hvis du føler deg dårlig eller har noe form for symptomer, hold deg hjemme.",
          "start_date": "2021-10-04T16:00:00+02:00",
          "end_date": "2021-10-04T19:00:00+02:00",
          "location": "Kontoret",
          "event_type": 1,
          "event_type_display": "Sosialt",
          "organizer": 8,
          "author": null,
          "images": [],
          "companies": [],
          "is_attendance_event": true,
          "max_capacity": 20,
          "number_of_seats_taken": 0
      },
      {
          "id": 1625,
          "title": "Sommerjobbrebus med KID!",
          "slug": "sommerjobbrebus-med-kid",
          "ingress": "Velkommen til sommerjobbrebus med KID!\r\n\r\nØnsker du faglige utfordringer du kan dra nytte av i studietiden, lære fra dyktige og erfarne studenter og få et innblikk i hvordan det er hos ulike bedrifter? Er du nysgjerrig på hvordan det er å være sommerstudent og hvilke prosjekter du vil få mulighet til å arbeide med?",
          "ingress_short": "Den store sommerjobbrebusen!",
          "description": "Nettverket KID arrangerer den 28. september rebusløp med sommerstudenter som har arbeidet i 11 spennende bedrifter! Sommerstudentene vil fortelle om prosjektene de har arbeidet med, i tillegg til å dele sine erfaringer og verdien det gir å være sommerstudent. Her vil du få innblikk i hvorfor akkurat DU bør vurdere sommerjobb! Etter rebusløpet vil det bli middag og mingling sammen med sommerstudentene og representanter fra de ulike bedriftene, i tillegg til Kahoot og premieutdeling!\r\n\r\nHer vil du få innblikk i hvorfor akkurat DU bør vurdere sommerjobb!\r\n\r\nEtter rebusløpet vil det bli middag og mingling sammen med sommerstudentene og representanter fra de ulike bedriftene, i tillegg til Kahoot med premieutdeling hvor du blant annet kan vinne en Nintendo Switch! Dette er en gylden mulighet for å snakke med bedriftene og få lære enda mer om mulighetene som finnes.\r\n\r\n**Informasjon fra bedkom:**\r\n\r\nVi minner om at dørene åpner 17:00, ventelisten åpner 17:10 og presentasjonen starter 17:15.\r\n\r\nBedrifter du kan høre fra er:\r\n\r\n- Bekk\r\n- Sopra Steria\r\n- Equinor\r\n- Deloitte\r\n- Accenture\r\n- TietoEvry\r\n- Computas\r\n- Avinor\r\n- Nordic Semiconductor\r\n- Skagerak Energi\r\n- Schlumberger",
          "start_date": "2021-09-28T17:00:00+02:00",
          "end_date": "2021-09-28T23:59:59+02:00",
          "location": "R8",
          "event_type": 2,
          "event_type_display": "Bedriftspresentasjon",
          "organizer": 3,
          "author": null,
          "images": [
              {
                  "id": 960,
                  "name": "kid arr",
                  "timestamp": "2021-09-22T09:07:39.240868+02:00",
                  "description": "kid arr",
                  "thumb": "/media/images/responsive/thumbnails/5b1ed735-a2ac-48a6-b6e7-029effe235ad.png",
                  "original": "/media/images/responsive/5b1ed735-a2ac-48a6-b6e7-029effe235ad.png",
                  "wide": "/media/images/responsive/wide/5b1ed735-a2ac-48a6-b6e7-029effe235ad.png",
                  "lg": "/media/images/responsive/lg/5b1ed735-a2ac-48a6-b6e7-029effe235ad.png",
                  "md": "/media/images/responsive/md/5b1ed735-a2ac-48a6-b6e7-029effe235ad.png",
                  "sm": "/media/images/responsive/sm/5b1ed735-a2ac-48a6-b6e7-029effe235ad.png",
                  "xs": "/media/images/responsive/xs/5b1ed735-a2ac-48a6-b6e7-029effe235ad.png",
                  "tags": [
                      "KID"
                  ],
                  "photographer": "",
                  "preset": "company",
                  "preset_display": "Bedriftslogo"
              },
              {
                  "id": 959,
                  "name": "kid - sommerjobbrebus",
                  "timestamp": "2021-09-22T09:04:39.503018+02:00",
                  "description": "event",
                  "thumb": "/media/images/responsive/thumbnails/28e96118-c1c7-4bc6-b450-cc8da7359802.png",
                  "original": "/media/images/responsive/28e96118-c1c7-4bc6-b450-cc8da7359802.png",
                  "wide": "/media/images/responsive/wide/28e96118-c1c7-4bc6-b450-cc8da7359802.png",
                  "lg": "/media/images/responsive/lg/28e96118-c1c7-4bc6-b450-cc8da7359802.png",
                  "md": "/media/images/responsive/md/28e96118-c1c7-4bc6-b450-cc8da7359802.png",
                  "sm": "/media/images/responsive/sm/28e96118-c1c7-4bc6-b450-cc8da7359802.png",
                  "xs": "/media/images/responsive/xs/28e96118-c1c7-4bc6-b450-cc8da7359802.png",
                  "tags": [
                      "KID"
                  ],
                  "photographer": "",
                  "preset": "event",
                  "preset_display": "Arrangement"
              }
          ],
          "companies": [
              "Nettverket KID"
          ],
          "is_attendance_event": true,
          "max_capacity": 26,
          "number_of_seats_taken": 26
      },
      {
          "id": 1628,
          "title": "Kickboksing",
          "slug": "kickboksing",
          "ingress": "Onsdag 5. oktober blir det kickboksing med Trondheim Kickboksingklubb",
          "ingress_short": "Bli med OIL på kickboksing!",
          "description": "Bli med Online IL på kickboksingtime! \r\n\r\nDette blir en lavterskel økt med kickboksing, styrke- og utholdenhetstrening. Det er ikke noe krav til fysisk form eller forkunnskaper - dette vil være et grunnkurs. Det vil bli med en instruktør og hjelpetrener. Her er det bare til å møte opp hvis du vil ha en kickass økt! \r\n\r\nMøt opp i treningsklær og vannflaske på senteret klokken 16:00. Adressen er: Båtmannsgate 4, 7042 Trondheim, 3. etg. (Grått bygg bak Lade Dekkservice på Dora).",
          "start_date": "2021-10-06T16:00:00+02:00",
          "end_date": "2021-10-06T17:30:00+02:00",
          "location": "Båtsmannsgata 4, 7042 Trondheim",
          "event_type": 1,
          "event_type_display": "Sosialt",
          "organizer": 36,
          "author": null,
          "images": [
              {
                  "id": 477,
                  "name": "Kickboksing",
                  "timestamp": "2019-02-11T14:32:36.419358+01:00",
                  "description": "Kickboksing",
                  "thumb": "/media/images/responsive/thumbnails/81568a4d-3fc1-4e49-9386-dc7789692fc4.png",
                  "original": "/media/images/responsive/81568a4d-3fc1-4e49-9386-dc7789692fc4.png",
                  "wide": "/media/images/responsive/wide/81568a4d-3fc1-4e49-9386-dc7789692fc4.png",
                  "lg": "/media/images/responsive/lg/81568a4d-3fc1-4e49-9386-dc7789692fc4.png",
                  "md": "/media/images/responsive/md/81568a4d-3fc1-4e49-9386-dc7789692fc4.png",
                  "sm": "/media/images/responsive/sm/81568a4d-3fc1-4e49-9386-dc7789692fc4.png",
                  "xs": "/media/images/responsive/xs/81568a4d-3fc1-4e49-9386-dc7789692fc4.png",
                  "tags": [],
                  "photographer": "",
                  "preset": "event",
                  "preset_display": "Arrangement"
              }
          ],
          "companies": [],
          "is_attendance_event": true,
          "max_capacity": 15,
          "number_of_seats_taken": 0
      },
      {
          "id": 1582,
          "title": "Startup-kveld [5.Klasse]",
          "slug": "startup-kveld-5klasse",
          "ingress": "Dette er en unik mulighet til å bli kjent med noe av det utvilsomt mest givende og spennende i næringslivet - nemlig startups!",
          "ingress_short": "Ordr, Loopfront og Kvist inviterer til Startup-kveld!",
          "description": "Ordr, Loopfront og Kvist er tre meget spennende og lovende startups i forskjellige faser av oppstartseventyret. \r\n\r\nDenne kvelden byr på spennende lyntaler, sofaprat, pitcher av startups'ene, mingling, med mer - dette vil du ikke gå glipp av!\r\n\r\nArrangementet avholdes i et sjarmerende gjenbrukslokale - nemlig BrukOm i Styrmannsgata 6. \r\n\r\n**Det vil gå felles buss fra Hovedbygget kl 17:45.**\r\nDersom du heller ønsker å møte direkte på lokalet er dette selvfølgelig greit, bare si ifra til bedkom@online.ntnu.no i forkant. \r\n\r\nLokalet er ganske kaldt, så kle deg litt varmere enn vanlig ;)\r\n\r\nDet vil bli servering.",
          "start_date": "2021-09-29T18:00:00+02:00",
          "end_date": "2021-09-29T23:59:59+02:00",
          "location": "Styrmannsgata 6",
          "event_type": 2,
          "event_type_display": "Bedriftspresentasjon",
          "organizer": 3,
          "author": {
              "id": 1717,
              "first_name": "Martin",
              "last_name": "Kvalsund",
              "username": "martinkvalsund"
          },
          "images": [
              {
                  "id": 932,
                  "name": "OnlineBedrift",
                  "timestamp": "2021-08-25T14:30:47.656955+02:00",
                  "description": "Onlines logo som bildetype \"Company\"",
                  "thumb": "/media/images/responsive/thumbnails/26f7b3ca-cee7-40c8-b903-7fd449ea99af.png",
                  "original": "/media/images/responsive/26f7b3ca-cee7-40c8-b903-7fd449ea99af.png",
                  "wide": "/media/images/responsive/wide/26f7b3ca-cee7-40c8-b903-7fd449ea99af.png",
                  "lg": "/media/images/responsive/lg/26f7b3ca-cee7-40c8-b903-7fd449ea99af.png",
                  "md": "/media/images/responsive/md/26f7b3ca-cee7-40c8-b903-7fd449ea99af.png",
                  "sm": "/media/images/responsive/sm/26f7b3ca-cee7-40c8-b903-7fd449ea99af.png",
                  "xs": "/media/images/responsive/xs/26f7b3ca-cee7-40c8-b903-7fd449ea99af.png",
                  "tags": [
                      "Bedkom"
                  ],
                  "photographer": "",
                  "preset": "company",
                  "preset_display": "Bedriftslogo"
              },
              {
                  "id": 957,
                  "name": "startup blå cover",
                  "timestamp": "2021-09-21T15:38:02.499344+02:00",
                  "description": "startup",
                  "thumb": "/media/images/responsive/thumbnails/7b582825-913f-4902-a309-d716f5b444ab.png",
                  "original": "/media/images/responsive/7b582825-913f-4902-a309-d716f5b444ab.png",
                  "wide": "/media/images/responsive/wide/7b582825-913f-4902-a309-d716f5b444ab.png",
                  "lg": "/media/images/responsive/lg/7b582825-913f-4902-a309-d716f5b444ab.png",
                  "md": "/media/images/responsive/md/7b582825-913f-4902-a309-d716f5b444ab.png",
                  "sm": "/media/images/responsive/sm/7b582825-913f-4902-a309-d716f5b444ab.png",
                  "xs": "/media/images/responsive/xs/7b582825-913f-4902-a309-d716f5b444ab.png",
                  "tags": [
                      "cover",
                      "Startup",
                      "blue"
                  ],
                  "photographer": "",
                  "preset": "event",
                  "preset_display": "Arrangement"
              }
          ],
          "companies": [
              "Online"
          ],
          "is_attendance_event": true,
          "max_capacity": 10,
          "number_of_seats_taken": 10
      },
      {
          "id": 1610,
          "title": "Startup-kveld [3.-4.Klasse]",
          "slug": "startup-kveld-3-4klasse",
          "ingress": "Dette er en unik mulighet til å bli kjent med noe av det utvilsomt mest givende og spennende i næringslivet - nemlig startups!",
          "ingress_short": "Ordr, Loopfront og Kvist inviterer til Startup-kveld!",
          "description": "Ordr, Loopfront og Kvist er tre meget spennende og lovende startups i forskjellige faser av oppstartseventyret. \r\n\r\nDenne kvelden byr på spennende lyntaler, sofaprat, pitcher av startups'ene, mingling, med mer - dette vil du ikke gå glipp av!\r\n\r\nArrangementet avholdes i et sjarmerende gjenbrukslokale - nemlig BrukOm i Styrmannsgata 6. \r\n\r\n**Det vil gå felles buss fra Hovedbygget kl 17:45.**\r\nDersom du heller ønsker å møte direkte på lokalet er dette selvfølgelig greit, bare si ifra til bedkom@online.ntnu.no i forkant. \r\n\r\n\r\nLokalet er ganske kaldt, så kle deg litt varmere enn vanlig ;)\r\n\r\nDet vil bli servering.",
          "start_date": "2021-09-29T18:00:00+02:00",
          "end_date": "2021-09-29T23:59:59+02:00",
          "location": "Styrmannsgata 6",
          "event_type": 2,
          "event_type_display": "Bedriftspresentasjon",
          "organizer": 3,
          "author": null,
          "images": [
              {
                  "id": 957,
                  "name": "startup blå cover",
                  "timestamp": "2021-09-21T15:38:02.499344+02:00",
                  "description": "startup",
                  "thumb": "/media/images/responsive/thumbnails/7b582825-913f-4902-a309-d716f5b444ab.png",
                  "original": "/media/images/responsive/7b582825-913f-4902-a309-d716f5b444ab.png",
                  "wide": "/media/images/responsive/wide/7b582825-913f-4902-a309-d716f5b444ab.png",
                  "lg": "/media/images/responsive/lg/7b582825-913f-4902-a309-d716f5b444ab.png",
                  "md": "/media/images/responsive/md/7b582825-913f-4902-a309-d716f5b444ab.png",
                  "sm": "/media/images/responsive/sm/7b582825-913f-4902-a309-d716f5b444ab.png",
                  "xs": "/media/images/responsive/xs/7b582825-913f-4902-a309-d716f5b444ab.png",
                  "tags": [
                      "cover",
                      "Startup",
                      "blue"
                  ],
                  "photographer": "",
                  "preset": "event",
                  "preset_display": "Arrangement"
              }
          ],
          "companies": [],
          "is_attendance_event": true,
          "max_capacity": 25,
          "number_of_seats_taken": 25
      },
      {
          "id": 1592,
          "title": "Realfagskjelleren 20-år!",
          "slug": "realfagskjelleren-20-ar",
          "ingress": "Du er herved invitert til Realfagskjellerens storslagene jubileum!",
          "ingress_short": "Realfagskjelleren feirer 20 år!",
          "description": "I 2001 åpnet Realfagskjelleren døren sin for å ta imot alle sosiale, hyggelige og festglade mennesker. Vi har skapt mange gode minner siden den gang, og vi inviterer alle venner av kjelleren til 20-års jubileum.\r\nVi lover en god middag, en finfin dalje, og den beste stemningen!\r\n\r\n* Dato: 02. Oktober 2021\r\n* Antrekk: Studentergalla\r\n* Sted: Thon Hotel Prinsen\r\n* Meny: Buffet\r\n* Pris: 560\r\n* Påmeldingsfrist: 16. September\r\n* Påmelding: https://forms.gle/5TPPFU2XZznqoiFD7\r\n**(NB! Arrangementet er dessverre fullt)**\r\n\r\n**NB: Oppdateringer og annen viktig informasjon blir gitt på facebook-eventet: https://www.facebook.com/events/256179995874304**\r\n\r\nVi håper så mange som mulig ønsker å feire sammen med oss. Vi ses siden!",
          "start_date": "2021-10-02T18:00:00+02:00",
          "end_date": "2021-10-02T23:59:59+02:00",
          "location": "Thon Hotel Prinsen",
          "event_type": 8,
          "event_type_display": "Realfagskjelleren",
          "organizer": 33,
          "author": null,
          "images": [
              {
                  "id": 933,
                  "name": "Realfagskjelleren 20",
                  "timestamp": "2021-08-26T20:40:08.641250+02:00",
                  "description": "Realfagskjelleren sitt 20 års jubb",
                  "thumb": "/media/images/responsive/thumbnails/12a8295e-fee2-4f25-bdb6-30752e276d69.png",
                  "original": "/media/images/responsive/12a8295e-fee2-4f25-bdb6-30752e276d69.png",
                  "wide": "/media/images/responsive/wide/12a8295e-fee2-4f25-bdb6-30752e276d69.png",
                  "lg": "/media/images/responsive/lg/12a8295e-fee2-4f25-bdb6-30752e276d69.png",
                  "md": "/media/images/responsive/md/12a8295e-fee2-4f25-bdb6-30752e276d69.png",
                  "sm": "/media/images/responsive/sm/12a8295e-fee2-4f25-bdb6-30752e276d69.png",
                  "xs": "/media/images/responsive/xs/12a8295e-fee2-4f25-bdb6-30752e276d69.png",
                  "tags": [
                      "kjelleren",
                      "jubileum",
                      "realfagskjelleren",
                      "20"
                  ],
                  "photographer": "",
                  "preset": "event",
                  "preset_display": "Arrangement"
              }
          ],
          "companies": [],
          "is_attendance_event": false,
          "max_capacity": null,
          "number_of_seats_taken": null
      }
  ]
}